{
    "imageSim": {
        "binning": 1,
        "imSize": [
            114,
            26
        ],
        "pixelSize": 660,
        "sigmaC": 2,
        "scaleC": 6720.911727139348,
        "x0": 7,
        "y0": 105
    },
    "wfmSim": {
        "driftVelocity": 19300,
        "sampling": 100.0,
        "sigmaW": 3.0,
        "scaleW": 65.92867921217294,
        "wfmSize": 423,
        "wfmStart": 44652.0,
        "wfmStop": 44656.23,
        "z0": 44652.6
    },
    "tracks": [
        {
            "srimFile": "/home/adam/cernbox/Documents/zn54/treco/srimTables/srimOutH.txt",
            "type": "proton",
            "e0": 1809.0503620946406,
            "theta": 83.46336635120294,
            "phi": -40.477843250750176,
            "range": 83841.43770236768,
            "imLength": 63774.581143273695,
            "wfmLength": 54426.0,
            "vector": [
                0.08659202655580159,
                0.7557122317597224,
                -0.649153944535269
            ]
        }
    ],
    "eventImage": {
        "path": "/home/adam/cernbox/Documents/zn54/reconstruction/55zn/croppedImages/R019_00026.new.png",
        "sigma": 0,
        "bg": 0,
        "scale": 1.0
    },
    "eventWfm": {
        "path": "/home/adam/cernbox/Documents/zn54/reconstruction/55zn/pmt/R019_00026.new_scope.meta",
        "sigma": 1,
        "scale": 1.0,
        "bg": 663
    }
}