{
    "imageSim": {
        "binning": 1,
        "imSize": [
            178,
            99
        ],
        "pixelSize": 660,
        "sigmaC": 1.33,
        "scaleC": 2543.0167315770386,
        "x0": 4,
        "y0": 174
    },
    "wfmSim": {
        "driftVelocity": 19300,
        "sampling": 100.0,
        "sigmaW": 2,
        "scaleW": 175.6422464019906,
        "wfmSize": 570,
        "wfmStart": 107271.97,
        "wfmStop": 107277.67,
        "z0": 107277.3
    },
    "tracks": [
        {
            "srimFile": "/home/adam/cernbox/Documents/zn54/treco/srimTables/srimOutH.txt",
            "type": "proton",
            "e0": 2604.383393496775,
            "theta": 62.183541016329755,
            "phi": 34.514064916727115,
            "range": 151372.74020278617,
            "imLength": 124729.18868455826,
            "wfmLength": 85769.08514489389,
            "vector": [
                0.38450595161733,
                0.7287729082979625,
                0.566608525616921
            ]
        }
    ],
    "eventImage": {
        "path": "/home/adam/cernbox/Documents/zn54/reconstruction/55zn/croppedImages/R067_00112.new.png",
        "sigma": 0,
        "bg": 0,
        "scale": 1.0
    },
    "eventWfm": {
        "path": "/home/adam/cernbox/Documents/zn54/reconstruction/55zn/pmt/R067_00112.new_scope.meta",
        "sigma": 1,
        "scale": 1.0,
        "bg": 575
    }
}