{
    "imageSim": {
        "binning": 1,
        "imSize": [
            122,
            21
        ],
        "pixelSize": 660,
        "sigmaC": 2,
        "scaleC": 2297.9852656081935,
        "x0": 5,
        "y0": 115
    },
    "wfmSim": {
        "driftVelocity": 19300,
        "sampling": 100.0,
        "sigmaW": 3.0,
        "scaleW": 148.69900456312467,
        "wfmSize": 302,
        "wfmStart": 54584.98,
        "wfmStop": 54588.0,
        "z0": 54585.68000000001
    },
    "tracks": [
        {
            "srimFile": "/home/adam/cernbox/Documents/zn54/treco/srimTables/srimOutH.txt",
            "type": "proton",
            "e0": 1687.2966416627796,
            "theta": 85.6430249941537,
            "phi": -22.069300728818764,
            "range": 74995.78710834363,
            "imLength": 69500.85179334135,
            "wfmLength": 28178.0,
            "vector": [
                0.07040395472311246,
                0.9240519057408499,
                -0.37572777200527663
            ]
        }
    ],
    "eventImage": {
        "path": "/home/adam/cernbox/Documents/zn54/reconstruction/55zn/croppedImages/R067_00111.new.png",
        "sigma": 0,
        "bg": 0,
        "scale": 1.0
    },
    "eventWfm": {
        "path": "/home/adam/cernbox/Documents/zn54/reconstruction/55zn/pmt/R067_00111.new_scope.meta",
        "sigma": 1,
        "scale": 1.0,
        "bg": 607
    }
}