{
    "imageSim": {
        "binning": 1,
        "imSize": [
            58,
            59
        ],
        "pixelSize": 660,
        "sigmaC": 2,
        "scaleC": 3431.8688138891916,
        "x0": 6,
        "y0": 50
    },
    "wfmSim": {
        "driftVelocity": 19300,
        "sampling": 100.0,
        "sigmaW": 3.0,
        "scaleW": 154.11097487480737,
        "wfmSize": 360,
        "wfmStart": 44581.81,
        "wfmStop": 44585.409999999996,
        "z0": 44582.51
    },
    "tracks": [
        {
            "srimFile": "/home/adam/cernbox/Documents/zn54/treco/srimTables/srimOutH.txt",
            "type": "proton",
            "e0": 1443.6051807548863,
            "theta": 43.75463573323166,
            "phi": -42.792727146661036,
            "range": 58523.74700922694,
            "imLength": 42945.66800039323,
            "wfmLength": 39758.0,
            "vector": [
                0.5300412496675807,
                0.5074863028732157,
                -0.6793481626139163
            ]
        }
    ],
    "eventImage": {
        "path": "/home/adam/cernbox/Documents/zn54/reconstruction/55zn/croppedImages/R067_00090.new.png",
        "sigma": 0,
        "bg": 0,
        "scale": 1.0
    },
    "eventWfm": {
        "path": "/home/adam/cernbox/Documents/zn54/reconstruction/55zn/pmt/R067_00090.new_scope.meta",
        "sigma": 1,
        "scale": 1.0,
        "bg": 633
    }
}