{
    "imageSim": {
        "binning": 1,
        "imSize": [
            31,
            28
        ],
        "pixelSize": 660,
        "sigmaC": 1.33,
        "scaleC": 1164.363915589175,
        "x0": 8,
        "y0": 24
    },
    "wfmSim": {
        "driftVelocity": 19300,
        "sampling": 100.0,
        "sigmaW": 3.0,
        "scaleW": 113.56693757584343,
        "wfmSize": 700,
        "wfmStart": 5038.0,
        "wfmStop": 5045.0,
        "z0": 5043.5
    },
    "tracks": [
        {
            "srimFile": "/home/adam/cernbox/Documents/zn54/treco/srimTables/srimOutH.txt",
            "type": "proton",
            "e0": 1849.8642392535598,
            "theta": 55.00797980144134,
            "phi": 80.11852961170645,
            "range": 86897.39352313524,
            "imLength": 14912.505520100445,
            "wfmLength": 85608.26,
            "vector": [
                0.09841216208183606,
                0.14058880297405152,
                0.9851648769788242
            ]
        }
    ],
    "eventImage": {
        "path": "/home/adam/cernbox/Documents/zn54/reconstruction/55zn/croppedImages/R067_00018.new.png",
        "sigma": 0,
        "bg": 0,
        "scale": 1.0
    },
    "eventWfm": {
        "path": "/home/adam/cernbox/Documents/zn54/reconstruction/55zn/pmt/R067_00018.new_scope.meta",
        "sigma": 0,
        "scale": 1.0,
        "bg": 616
    }
}