{
    "imageSim": {
        "binning": 1,
        "imSize": [
            47,
            37
        ],
        "pixelSize": 660,
        "sigmaC": 1.659999966621399,
        "scaleC": 2291.2333984375,
        "x0": 9,
        "y0": 39
    },
    "wfmSim": {
        "driftVelocity": 19600,
        "sampling": 100.0,
        "sigmaW": 3.9800000190734863,
        "scaleW": 113.78181457519531,
        "wfmSize": 150,
        "wfmStart": 5022.5,
        "wfmStop": 5024.0,
        "z0": 5023.45
    },
    "tracks": [
        {
            "srimFile": "/home/adam/cernbox/Documents/zn54/treco/srimTables/srimOutH.txt",
            "type": "proton",
            "e0": 865.9882484513862,
            "theta": 58.7281740009094,
            "phi": 13.694252067988538,
            "range": 26493.123334178625,
            "imLength": 25740.0,
            "wfmLength": 6271.999999999999,
            "vector": [
                0.5043423977818877,
                0.8304171221926353,
                0.2367406787371321
            ]
        },
        {
            "srimFile": "/home/adam/cernbox/Documents/zn54/treco/srimTables/srimOutH.txt",
            "type": "proton",
            "e0": 407.71495139896336,
            "theta": 90.03622494912936,
            "phi": 12.867748470276819,
            "range": 8801.022667849458,
            "imLength": 8580.0,
            "wfmLength": 1960.0,
            "vector": [
                -0.000616366847382787,
                0.9748865113695739,
                0.22270139209616746
            ]
        }
    ],
    "eventImage": {
        "path": "/home/adam/cernbox/Documents/zn54/reconstruction/events/r90_442/r90_442.png",
        "sigma": 0.0,
        "bg": 0,
        "scale": 1.0
    },
    "eventWfm": {
        "path": "/home/adam/cernbox/Documents/zn54/reconstruction/events/r90_442/R090_00442.new_scope.meta",
        "sigma": 0.0,
        "scale": 1.0,
        "bg": 617
    }
}