{
    "imageSim": {
        "binning": 1,
        "imSize": [
            103,
            55
        ],
        "pixelSize": 660,
        "sigmaC": 2.6600000858306885,
        "scaleC": 2176.72705078125,
        "x0": 33,
        "y0": 96
    },
    "wfmSim": {
        "driftVelocity": 19300,
        "sampling": 100.0,
        "sigmaW": 3.990000009536743,
        "scaleW": 144.9134063720703,
        "wfmSize": 749,
        "wfmStart": 7304.1900000000005,
        "wfmStop": 7311.68,
        "z0": 7304.85
    },
    "tracks": [
        {
            "srimFile": "/home/adam/cernbox/Documents/zn54/treco/srimTables/srimOutH.txt",
            "type": "proton",
            "e0": 2358.6411379392875,
            "theta": 104.99999999999994,
            "phi": -62.190882303904786,
            "range": 128738.41889661376,
            "imLength": 60059.99999999999,
            "wfmLength": 113869.99999999999,
            "vector": [
                -0.12074617648785045,
                0.450630865472338,
                -0.8845067461287203
            ]
        }
    ],
    "eventImage": {
        "path": "/home/adam/cernbox/Documents/zn54/reconstruction/55zn/croppedImages/R071_00080.new.png",
        "sigma": 0.0,
        "bg": 0,
        "scale": 1.0
    },
    "eventWfm": {
        "path": "/home/adam/cernbox/Documents/zn54/reconstruction/55zn/pmt/R071_00080.new_scope.meta",
        "sigma": 1.0,
        "scale": 1.0,
        "bg": 535
    }
}